^D:\ONEDRIVE\PROGRAMMING PROJECTS\UNIVERSITY\SMC - STANDARD MODERN C++\LABORATOR1\PRODUCTS\PRODUCTS\PRODUCTS\DEBUG\MAIN.OBJ|D:\ONEDRIVE\PROGRAMMING PROJECTS\UNIVERSITY\SMC - STANDARD MODERN C++\LABORATOR1\PRODUCTS\PRODUCTS\PRODUCTS\DEBUG\NONPERISHABLEPRODUCT.OBJ|D:\ONEDRIVE\PROGRAMMING PROJECTS\UNIVERSITY\SMC - STANDARD MODERN C++\LABORATOR1\PRODUCTS\PRODUCTS\PRODUCTS\DEBUG\PERISHABLEPRODUCT.OBJ|D:\ONEDRIVE\PROGRAMMING PROJECTS\UNIVERSITY\SMC - STANDARD MODERN C++\LABORATOR1\PRODUCTS\PRODUCTS\PRODUCTS\DEBUG\PRODUCT.OBJ
D:\WINDOWS KITS\10\LIB\10.0.18362.0\UM\X86\KERNEL32.LIB
D:\WINDOWS KITS\10\LIB\10.0.18362.0\UM\X86\USER32.LIB
D:\WINDOWS KITS\10\LIB\10.0.18362.0\UM\X86\GDI32.LIB
D:\WINDOWS KITS\10\LIB\10.0.18362.0\UM\X86\WINSPOOL.LIB
D:\WINDOWS KITS\10\LIB\10.0.18362.0\UM\X86\COMDLG32.LIB
D:\WINDOWS KITS\10\LIB\10.0.18362.0\UM\X86\ADVAPI32.LIB
D:\WINDOWS KITS\10\LIB\10.0.18362.0\UM\X86\SHELL32.LIB
D:\WINDOWS KITS\10\LIB\10.0.18362.0\UM\X86\OLE32.LIB
D:\WINDOWS KITS\10\LIB\10.0.18362.0\UM\X86\OLEAUT32.LIB
D:\WINDOWS KITS\10\LIB\10.0.18362.0\UM\X86\UUID.LIB
D:\WINDOWS KITS\10\LIB\10.0.18362.0\UM\X86\ODBC32.LIB
D:\WINDOWS KITS\10\LIB\10.0.18362.0\UM\X86\ODBCCP32.LIB
D:\ONEDRIVE\PROGRAMMING PROJECTS\UNIVERSITY\SMC - STANDARD MODERN C++\LABORATOR1\PRODUCTS\PRODUCTS\PRODUCTS\DEBUG\MAIN.OBJ
D:\ONEDRIVE\PROGRAMMING PROJECTS\UNIVERSITY\SMC - STANDARD MODERN C++\LABORATOR1\PRODUCTS\PRODUCTS\PRODUCTS\DEBUG\NONPERISHABLEPRODUCT.OBJ
D:\ONEDRIVE\PROGRAMMING PROJECTS\UNIVERSITY\SMC - STANDARD MODERN C++\LABORATOR1\PRODUCTS\PRODUCTS\PRODUCTS\DEBUG\PERISHABLEPRODUCT.OBJ
D:\ONEDRIVE\PROGRAMMING PROJECTS\UNIVERSITY\SMC - STANDARD MODERN C++\LABORATOR1\PRODUCTS\PRODUCTS\PRODUCTS\DEBUG\PRODUCT.OBJ
C:\WINDOWS\SYSTEM32\TZRES.DLL
C:\WINDOWS\GLOBALIZATION\SORTING\SORTDEFAULT.NLS
D:\PROGRAM FILES\VISUAL STUDIO 2019\VC\TOOLS\MSVC\14.23.28105\LIB\X86\MSVCPRTD.LIB
D:\PROGRAM FILES\VISUAL STUDIO 2019\VC\TOOLS\MSVC\14.23.28105\LIB\X86\MSVCRTD.LIB
D:\PROGRAM FILES\VISUAL STUDIO 2019\VC\TOOLS\MSVC\14.23.28105\LIB\X86\OLDNAMES.LIB
D:\PROGRAM FILES\VISUAL STUDIO 2019\VC\TOOLS\MSVC\14.23.28105\LIB\X86\VCRUNTIMED.LIB
D:\WINDOWS KITS\10\LIB\10.0.18362.0\UCRT\X86\UCRTD.LIB
